{
  "simulation": {
    "agents": {
      "sensors": {
        "SENSOR_AGENT#0": {
          "id": "SENSOR_AGENT#0",
          "subject": "APPLIANCE#0",
          "subject_state": "STAND_BY"
        },
        "SENSOR_AGENT#2": {
          "id": "SENSOR_AGENT#2",
          "subject": "APPLIANCE#2",
          "subject_state": "OFF"
        },
        "SENSOR_AGENT#1": {
          "id": "SENSOR_AGENT#1",
          "subject": "APPLIANCE#1",
          "subject_state": "OFF"
        },
        "SENSOR_AGENT#3": {
          "id": "SENSOR_AGENT#3",
          "subject": "APPLIANCE#3",
          "subject_state": "OFF"
        }
      },
      "actuators": {
        "ACTUATOR_AGENT#0": {
          "id": "ACTUATOR_AGENT#0",
          "subject": "APPLIANCE#0",
          "pending_orders": []
        },
        "ACTUATOR_AGENT#1": {
          "id": "ACTUATOR_AGENT#1",
          "subject": "APPLIANCE#1",
          "pending_orders": []
        },
        "ACTUATOR_AGENT#2": {
          "id": "ACTUATOR_AGENT#2",
          "subject": "APPLIANCE#2",
          "pending_orders": []
        },
        "ACTUATOR_AGENT#3": {
          "id": "ACTUATOR_AGENT#3",
          "subject": "APPLIANCE#3",
          "pending_orders": []
        }
      }
    },
    "consumption": {
      "total": 60,
      "per_appliance": {
        "APPLIANCE#0": 60,
        "APPLIANCE#1": 0,
        "APPLIANCE#2": 0,
        "APPLIANCE#3": 0
      },
      "per_room": {
        "APPLIANCE#0": 60,
        "APPLIANCE#1": 0,
        "APPLIANCE#2": 0,
        "APPLIANCE#3": 0
      }
    },
    "date": "20140603194153",
    "people": {
      "PERSON#0": {
        "location": "ROOM#0"
      }
    },
    "step_multiplier": 5,
    "total_rooms": 4,
    "total_people": 1,
    "id": "SIMULATION#0603194153",
    "appliances": {
      "APPLIANCE#0": {
        "sensor": "SENSOR_AGENT#0",
        "location": "ROOM#0",
        "consumption": {
          "ON": 30,
          "STAND_BY": 0,
          "OFF": 0
        },
        "actuator": "ACTUATOR_AGENT#0",
        "type": "class lsint.e4.smarthome.Fridge"
      },
      "APPLIANCE#1": {
        "sensor": "SENSOR_AGENT#1",
        "location": "ROOM#1",
        "consumption": {
          "ON": 5,
          "STAND_BY": 0,
          "OFF": 0
        },
        "actuator": "ACTUATOR_AGENT#1",
        "type": "class lsint.e4.smarthome.Light"
      },
      "APPLIANCE#2": {
        "sensor": "SENSOR_AGENT#2",
        "location": "ROOM#2",
        "consumption": {
          "ON": 12,
          "STAND_BY": 0,
          "OFF": 0
        },
        "actuator": "ACTUATOR_AGENT#2",
        "type": "class lsint.e4.smarthome.Television"
      },
      "APPLIANCE#3": {
        "sensor": "SENSOR_AGENT#3",
        "location": "ROOM#3",
        "consumption": {
          "ON": 20,
          "STAND_BY": 0,
          "OFF": 0
        },
        "actuator": "ACTUATOR_AGENT#3",
        "type": "class lsint.e4.smarthome.Thermostat"
      }
    },
    "total_appliance": 4,
    "actions": {},
    "step": 2,
    "rooms": {
      "ROOM#0": {
        "id": "ROOM#0",
        "number_of_persons": 1,
        "appliances": [
          "APPLIANCE#0"
        ],
        "number_of_appliance": 1,
        "persons": [
          "PERSON#0"
        ]
      },
      "ROOM#1": {
        "id": "ROOM#1",
        "number_of_persons": 0,
        "appliances": [
          "APPLIANCE#1"
        ],
        "number_of_appliance": 1,
        "persons": []
      },
      "ROOM#2": {
        "id": "ROOM#2",
        "number_of_persons": 0,
        "appliances": [
          "APPLIANCE#2"
        ],
        "number_of_appliance": 1,
        "persons": []
      },
      "ROOM#3": {
        "id": "ROOM#3",
        "number_of_persons": 0,
        "appliances": [
          "APPLIANCE#3"
        ],
        "number_of_appliance": 1,
        "persons": []
      }
    }
  }
}